<svg width="16" height="16" viewBox="0 0 16 16" version="1.1" xmlns="http://www.w3.org/2000/svg" xmlns:xlink="http://www.w3.org/1999/xlink">
            <path d="M5.40013196,9.43 L1.58213196,13.252 L1.60013196,11.2 C1.60013196,10.7581722 1.24195976,10.4 0.800131962,10.4 C0.358304162,10.4 0.000131961742,10.7581722 0.000131961742,11.2 L0.000131961742,15.2 C-0.00399613216,15.4152062 0.0889114267,15.6208513 0.253131962,15.76 C0.402885134,15.9137511 0.608503662,16.0003273 0.823131962,16.0000009 L4.80013196,16.0000009 C5.24195976,16.0000009 5.60013196,15.6418278 5.60013196,15.2 C5.60013196,14.7581722 5.24195976,14.4 4.80013196,14.4 L2.70013196,14.4 L6.53913196,10.561 L5.40013196,9.43 Z M15.178132,0 L11.200132,0 C10.7583042,0 10.400132,0.3581722 10.400132,0.8 C10.400132,1.2418278 10.7583042,1.6 11.200132,1.6 L13.300132,1.6 L9.46313196,5.439 L10.594132,6.57 L14.416132,2.748 L14.400132,4.8 C14.400132,5.2418278 14.7583042,5.6 15.200132,5.6 C15.6419598,5.6 16.000132,5.2418278 16.000132,4.8 L16.000132,0.8 C16.000132,0.563 15.400132,0 15.178132,0 Z" id="Shape"></path>
</svg>
