<svg id="next" xmlns="http://www.w3.org/2000/svg" xmlns:xlink="http://www.w3.org/1999/xlink" width="48" height="30" viewBox="0 0 48 30">
  <defs>
    <linearGradient id="linear-gradient" x1="0.5" y1="1" x2="0.5" gradientUnits="objectBoundingBox">
      <stop offset="0" stop-color="#fff"/>
      <stop offset="1" stop-color="#aecdff"/>
    </linearGradient>
  </defs>
  <g id="next-2" data-name="next" transform="translate(48) rotate(90)">
    <path id="Объединение_3" data-name="Объединение 3" d="M0,48V16.25H.038a2.285,2.285,0,0,1,.527-1.922L13.368.608a2.172,2.172,0,0,1,3.013,0L29.394,14.239a2.283,2.283,0,0,1,.559,2.012H30V48Z" transform="translate(0 0)" opacity="0.5" fill="url(#linear-gradient)"/>
    <path id="Контур_27" data-name="Контур 27" d="M29.394,17.338A2.2,2.2,0,0,1,27.828,18h0a2.08,2.08,0,0,1-1.536-.662L14.935,5.362,3.578,17.338a2.171,2.171,0,0,1-3.012,0,2.285,2.285,0,0,1,0-3.009L13.368.608a2.171,2.171,0,0,1,3.012,0L29.394,14.239a2.285,2.285,0,0,1,0,3.1Z" transform="translate(0)" fill="#aecdff"/>
  </g>
</svg>
